구군,동수,세대수,인구수,남자인구수,여자인구수,시전체_인구에_대한_구성비,면적,인구밀도
중구,9,23043,44635,22163,22472,1.3,2.83,"15,772"
서구,13,53074,112376,55087,57289,3.2,13.98,"8,038"
동구,12,43306,88825,43727,45098,2.5,9.74,"9,120"
영도구,11,55222,121063,60039,61024,3.5,14.2,"8,526"
부산진구,20,165268,363231,176241,186990,10.4,29.67,"12,242"
동래구,13,109355,268451,131062,137389,7.7,16.63,"16,143"
남구,17,117873,285083,139979,145104,8.2,26.81,"10,633"
북구,13,119828,297280,147376,149904,8.5,39.37,"7,551"
해운대구,18,167490,413911,199992,213919,11.9,51.47,"8,042"
사하구,16,138649,330626,165597,165029,9.5,41.77,"7,915"
금정구,17,106787,247105,120741,126364,7.1,65.28,"3,785"
강서구,8,51817,131403,69675,61728,3.8,181.49,724
연제구,12,88757,209846,101552,108294,6.0,12.1,"17,343"
수영구,10,80138,177795,84444,93351,5.1,10.21,"17,414"
사상구,12,96900,228243,115627,112616,6.5,36.09,"6,324"
기장군,5,68345,167269,83243,84026,4.8,218.3,766
